name,id,designation,tech/manufacturer,system id,fleet pts,hitpoints,armor rating,max flux,8/6/5/4%,flux dissipation,ordnance points,fighter bays,max speed,acceleration,deceleration,max turn rate,turn acceleration,mass,shield type,defense id,shield arc,shield upkeep,shield efficiency,phase cost,phase upkeep,min crew,max crew,cargo,fuel,fuel/ly,range,max burn,base value,cr %/day,CR to deploy,peak CR sec,CR loss/sec,supplies/rec,supplies/mo,hints,tags,rarity,breakProb,minPieces,maxPieces,number
Ollerus,wotani_ollerus,Battlecruiser,Wotani Federation,burndrive,30,15500,1250,18000,,1000,320,2,40,25,10,8,4,2500,FRONT,,270,0.3,0.8,,,650,955,500,420,7,60,8,250000,4,20,700,0.25,40,40,,"rare_bp, wotani",,0.1,2,4,1
Naglfar,wotani_naglfar,Carrier,Wotani Federation,flarelauncher_active,16,7500,700,4500,,250,110,5,50,50,25,15,18,1000,OMNI,,150,0.4,1,,,150,290,95,65,5,13,8,70000,4,12,600,0.25,25,20,CARRIER,"wotani_mid_bp, wotani",,0.5,2,3,0
Kvasir,wotani_kvasir,Cruiser,Wotani Federation,maneuveringjets,17,9000,950,11000,,675,170,,50,30,25,16,18,1000,OMNI,,180,0.3,0.8,,,225,300,125,125,4,31,9,100000,4,17,700,0.25,20,25,,"wotani_rare_bp, wotani",,0.3,2,4,5
Vegtam,wotani_vegtam,Destroyer,Wotani Federation,burndrive,10,4500,650,4250,,300,100,1,80,40,25,35,20,850,FRONT,,180,0.3,0.9,,,70,140,70,70,3,23,10,35000,5,12,500,0.25,8,9,,"wotani_common_bp, wotani",,0.1,2,3,3
Wigrid,wotani_wigrid,Destroyer,Wotani Federation,maneuveringjets,10,4800,400,5000,,225,100,,130,70,30,50,40,375,FRONT,,120,0.3,0.9,,,50,100,90,55,2,27,10,38000,5,14,500,0.25,9,10,,"wotani_rare_bp, wotani",,0.2,2,3,6
Billig,wotani_billig,Fighter,Wotani Federation,,2,500,50,300,,70,0,,230,275,350,150,190,25,NONE,,0,0,1,,,1,1,,,,,,,,,,,,,,,,0,,,13
Vali,wotani_vali,Fighter,Wotani Federation,flarelauncher_fighter,3,575,80,400,,90,0,,240,200,200,175,175,40,FRONT,,60,0,0.8,,,2,2,,,,,,,,,,,,,,,,0,,,16
Vanagand,wotani_vanagand,Fighter,Wotani Federation,,4,850,200,1050,,130,0,,210,200,150,140,140,60,FRONT,,120,0,0.7,,,2,2,,,,,,,,,,,,,,,,0,,,16
Angurvadal,wotani_angurvadal,Fighter,Wotani Federation,,4,700,100,700,,120,0,,255,350,350,200,220,40,FRONT,,90,0,0.7,,,1,1,,,,,,,,,,,,,,,,0,,,15
Geri,wotani_geri,Frigate,Wotani Federation,displacer,9,1800,150,2600,,220,50,,180,225,150,130,240,150,FRONT,,120,0.2,0.8,,,20,35,20,20,1,20,11,28000,10,17,350,0.25,7,8,,"wotani_mid_bp, wotani",,0.3,2,2,7
Sigrun,wotani_sigrun,Frigate,Wotani Federation,maneuveringjets,6,1550,125,2400,,175,55,,160,160,100,70,100,150,FRONT,,100,0.2,0.9,,,20,30,25,20,1,20,11,20000,10,15,300,0.25,5,5,,"wotani_mid_bp, wotani",,0.3,2,2,8
Fimbultyr,wotani_fimbultyr,Heavy Cruiser,Wotani Federation,burndrive,19,12500,1500,10500,,600,155,,30,25,10,11,11,2300,FRONT,,180,0.4,1,,,200,300,125,125,6,20,8,80000,4,15,600,0.25,25,25,,"wotani_common_bp, wotani",,0.1,2,3,2
Svipul,wotani_svipul,Heavy Frigate,Wotani Federation,damper,8,2550,400,2700,,200,60,,90,90,80,40,70,400,FRONT,,120,0.3,0.8,,,60,120,45,40,2,20,10,25000,6,18,325,0.25,6,6,,"wotani_common_bp, wotani",,0.1,2,2,4
Reir,wotani_reir,Light Carrier,Wotani Federation,flarelauncher_active,10,4500,350,2600,,180,60,3,70,40,25,25,20,425,OMNI,,120,0.4,1,,,100,150,60,35,2,17,9,40000,4,12,480,0.25,12,11,CARRIER,"wotani_common_bp, wotani",,0.5,2,3,9
Gangari,wotani_gangari,Rocket Bomber,Wotani Federation,,3,525,50,300,,40,0,,200,150,150,120,120,40,NONE,,0,0,1,,,1,1,,,,,,,,,,,,,,,,0,,,24
Hertyr,wotani_hertyr,Supercarrier,Wotani Federation,flarelauncher_active,46,15500,1000,14500,,700,255,7,30,15,15,10,10,3300,OMNI,,180,0.4,0.8,,,800,1300,300,300,11,36,7,320000,4,28,800,0.25,55,42,CARRIER,"rare_bp, wotani",,0.1,2,5,11
Farmagud,wotani_farmagud,Supply Ship,Wotani Federation,flarelauncher_active,6,3200,200,2000,,125,35,,65,30,20,20,12,600,OMNI,,120,0.5,1.1,,,30,60,200,200,3,83,10,28000,5,25,300,0.25,3,3,"CIVILIAN, FREIGHTER","wotani_common_bp, wotani",,0.5,2,3,12
Svadilfari,wotani_svadilfari,Torpedo Bomber,Wotani Federation,,4,600,50,355,,60,0,,170,100,100,60,70,60,FRONT,,120,0,1,,,3,3,,,,,,,,,,,,,,,,0,,,14